test/test_output.txt
rm -f results.xml
"make" -f Makefile results.xml
make[1]: Entering directory '/app/test'
mkdir -p sim_build/rtl
/usr/bin/iverilog -o sim_build/rtl/sim.vvp -s tb -g2012 -DRTL_SIM -I../src -f sim_build/rtl/cmds.f  ../src/project.v ../src/fp8_mul.v ../src/fp8_mul_lns.v ../src/fp8_mul_serial_lns.v ../src/fp8_aligner.v ../src/accumulator.v /app/test/tb.v
rm -f results.xml
COCOTB_TEST_MODULES=test,test_coverage,test_performance,test_short_protocol,test_exhaustive COCOTB_TESTCASE= COCOTB_TEST_FILTER= COCOTB_TOPLEVEL=tb TOPLEVEL_LANG=verilog \
         /usr/bin/vvp -M /home/jules/.pyenv/versions/3.12.13/lib/python3.12/site-packages/cocotb/libs -m libcocotbvpi_icarus   sim_build/rtl/sim.vvp
     -.--ns INFO     gpi                                ..mbed/gpi_embed.cpp:93   in _embed_init_python              Using Python 3.12.4 interpreter at /home/jules/.pyenv/versions/3.12.13/bin/python3.12
     -.--ns INFO     gpi                                ../gpi/GpiCommon.cpp:79   in gpi_print_registered_impl       VPI registered
     0.00ns INFO     cocotb                             Running on Icarus Verilog version 12.0 (stable)
     0.00ns INFO     cocotb                             Seeding Python random module with 1776868073
     0.00ns INFO     cocotb                             Initialized cocotb v2.0.1 from /home/jules/.pyenv/versions/3.12.13/lib/python3.12/site-packages/cocotb
     0.00ns ERROR    cocotb.regression                  Configuring the assertion rewrite hook using pytest 8.4.2 failed. Please file a bug report!
                                                        Traceback (most recent call last):
                                                          File "/home/jules/.pyenv/versions/3.12.13/lib/python3.12/site-packages/cocotb/regression.py", line 278, in setup_pytest_assertion_rewriting
                                                            pytest_conf = Config.fromdictargs(
                                                                          ^^^^^^^^^^^^^^^^^^^^
                                                          File "/home/jules/.pyenv/versions/3.12.13/lib/python3.12/site-packages/_pytest/config/__init__.py", line 1201, in fromdictargs
                                                            config.parse(args, addopts=False)
                                                          File "/home/jules/.pyenv/versions/3.12.13/lib/python3.12/site-packages/_pytest/config/__init__.py", line 1527, in parse
                                                            self._preparse(args, addopts=addopts)
                                                          File "/home/jules/.pyenv/versions/3.12.13/lib/python3.12/site-packages/_pytest/config/__init__.py", line 1412, in _preparse
                                                            self.pluginmanager.load_setuptools_entrypoints("pytest11")
                                                          File "/home/jules/.pyenv/versions/3.12.13/lib/python3.12/site-packages/pluggy/_manager.py", line 416, in load_setuptools_entrypoints
                                                            plugin = ep.load()
                                                                     ^^^^^^^^^
                                                          File "/home/jules/.pyenv/versions/3.12.13/lib/python3.12/importlib/metadata/__init__.py", line 205, in load
                                                            module = import_module(match.group('module'))
                                                                     ^^^^^^^^^^^^^^^^^^^^^^^^^^^^^^^^^^^^
                                                          File "/home/jules/.pyenv/versions/3.12.13/lib/python3.12/importlib/__init__.py", line 90, in import_module
                                                            return _bootstrap._gcd_import(name[level:], package, level)
                                                                   ^^^^^^^^^^^^^^^^^^^^^^^^^^^^^^^^^^^^^^^^^^^^^^^^^^^^
                                                          File "<frozen importlib._bootstrap>", line 1387, in _gcd_import
                                                          File "<frozen importlib._bootstrap>", line 1360, in _find_and_load
                                                          File "<frozen importlib._bootstrap>", line 1310, in _find_and_load_unlocked
                                                          File "<frozen importlib._bootstrap>", line 488, in _call_with_frames_removed
                                                          File "<frozen importlib._bootstrap>", line 1387, in _gcd_import
                                                          File "<frozen importlib._bootstrap>", line 1360, in _find_and_load
                                                          File "<frozen importlib._bootstrap>", line 1324, in _find_and_load_unlocked
                                                        ModuleNotFoundError: No module named 'cocotb_tools.pytest'
     0.00ns INFO     cocotb                             Running tests
     0.00ns INFO     cocotb.regression                  running test.test_mxfp8_mac_shared_scale (1/34)
     0.00ns INFO     cocotb.tb                          Start MXFP8 MAC Shared Scale Test
   500.00ns INFO     cocotb.tb                          Format: E4M3xE4M3, RM: 0, Wrap: 0, Scales: 128,127, Expected: 16384, Actual: 16384
  1010.00ns INFO     cocotb.tb                          Format: E4M3xE4M3, RM: 0, Wrap: 0, Scales: 126,127, Expected: 4096, Actual: 4096
  1010.00ns INFO     cocotb.regression                  test.test_mxfp8_mac_shared_scale passed
  1010.00ns INFO     cocotb.regression                  running test.test_mxfp8_mac_e4m3 (2/34)
  1010.00ns INFO     cocotb.tb                          Start MXFP8 MAC Test (E4M3)
  1520.00ns INFO     cocotb.tb                          Format: E4M3xE4M3, RM: 0, Wrap: 0, Scales: 127,127, Expected: 8192, Actual: 8192
  1520.00ns INFO     cocotb.regression                  test.test_mxfp8_mac_e4m3 passed
  1520.00ns INFO     cocotb.regression                  running test.test_mxfp8_mac_e5m2 (3/34)
  1520.00ns INFO     cocotb.tb                          Start MXFP8 MAC Test (E5M2)
  2030.00ns INFO     cocotb.tb                          Format: E5M2xE5M2, RM: 0, Wrap: 0, Scales: 127,127, Expected: 8192, Actual: 8192
  2030.00ns INFO     cocotb.regression                  test.test_mxfp8_mac_e5m2 passed
  2030.00ns INFO     cocotb.regression                  running test.test_rounding_modes (4/34)
  2030.00ns INFO     cocotb.tb                          Start Rounding Modes Test
  2540.00ns INFO     cocotb.tb                          Format: E4M3xE4M3, RM: 0, Wrap: 0, Scales: 127,127, Expected: 1296, Actual: 1296
  3050.00ns INFO     cocotb.tb                          Format: E4M3xE4M3, RM: 1, Wrap: 0, Scales: 127,127, Expected: 1296, Actual: 1296
  3560.00ns INFO     cocotb.tb                          Format: E4M3xE4M3, RM: 2, Wrap: 0, Scales: 127,127, Expected: 1296, Actual: 1296
  4070.00ns INFO     cocotb.tb                          Format: E4M3xE4M3, RM: 3, Wrap: 0, Scales: 127,127, Expected: 1296, Actual: 1296
  4580.00ns INFO     cocotb.tb                          Format: E4M3xE4M3, RM: 0, Wrap: 0, Scales: 127,127, Expected: -1296, Actual: -1296
  5090.00ns INFO     cocotb.tb                          Format: E4M3xE4M3, RM: 1, Wrap: 0, Scales: 127,127, Expected: -1296, Actual: -1296
  5600.00ns INFO     cocotb.tb                          Format: E4M3xE4M3, RM: 2, Wrap: 0, Scales: 127,127, Expected: -1296, Actual: -1296
  6110.00ns INFO     cocotb.tb                          Format: E4M3xE4M3, RM: 3, Wrap: 0, Scales: 127,127, Expected: -1296, Actual: -1296
  6110.00ns INFO     cocotb.regression                  test.test_rounding_modes passed
  6110.00ns INFO     cocotb.regression                  running test.test_overflow_saturation (5/34)
  6110.00ns INFO     cocotb.tb                          Start Overflow Saturation Test
  6620.00ns INFO     cocotb.tb                          Format: E5M2xE5M2, RM: 0, Wrap: 0, Scales: 127,127, Expected: 2147483647, Actual: 2147483647
  6620.00ns INFO     cocotb.regression                  test.test_overflow_saturation passed
  6620.00ns INFO     cocotb.regression                  running test.test_accumulator_saturation (6/34)
  6620.01ns INFO     cocotb.tb                          Start Accumulator Saturation Test
  7130.01ns INFO     cocotb.tb                          Format: E5M2xE5M2, RM: 0, Wrap: 0, Scales: 127,127, Expected: 2147483647, Actual: 2147483647
  7640.01ns INFO     cocotb.tb                          Format: E5M2xE5M2, RM: 0, Wrap: 1, Scales: 127,127, Expected: 0, Actual: 0
  7640.01ns INFO     cocotb.regression                  test.test_accumulator_saturation passed
  7640.01ns INFO     cocotb.regression                  running test.test_mxfp4_packed_serial (7/34)
  7640.01ns INFO     cocotb.tb                          Skipping Serial Packed FP4 Test (SUPPORT_PACKED_SERIAL=0)
  7640.01ns INFO     cocotb.regression                  test.test_mxfp4_packed_serial passed
  7640.01ns INFO     cocotb.regression                  running test.test_mxfp4_packed (8/34)
  7640.01ns INFO     cocotb.tb                          Start Packed FP4 Test
  7990.01ns INFO     cocotb.tb                          Format: E2M1xE2M1, RM: 0, Wrap: 0, Scales: 127,127, Expected: 8192, Actual: 8192
  7990.01ns INFO     cocotb.regression                  test.test_mxfp4_packed passed
  7990.01ns INFO     cocotb.regression                  running test.test_mixed_precision (9/34)
  7990.01ns INFO     cocotb.tb                          Start Mixed-Precision MAC Test
  8500.01ns INFO     cocotb.tb                          Format: E4M3xE5M2, RM: 0, Wrap: 0, Scales: 127,127, Expected: 8192, Actual: 8192
  9010.01ns INFO     cocotb.tb                          Format: E3M2xINT8, RM: 0, Wrap: 0, Scales: 127,127, Expected: 16384, Actual: 16384
  9010.01ns INFO     cocotb.regression                  test.test_mixed_precision passed
  9010.01ns INFO     cocotb.regression                  running test.test_mxfp_mac_randomized (10/34)
  9010.01ns INFO     cocotb.tb                          Start Randomized MXFP MAC Test (E4M3=1, E5M2=1, MXFP6=1, MXFP4=1, ADV=1, MIX=1)
  9520.01ns INFO     cocotb.tb                          Format: E3M2xINT8, RM: 3, Wrap: 1, Scales: 110,115, Expected: 0, Actual: 0
 10030.01ns INFO     cocotb.tb                          Format: INT8xE4M3, RM: 0, Wrap: 1, Scales: 131,138, Expected: 2143289344, Actual: 2143289344
 10540.01ns INFO     cocotb.tb                          Format: INT8xE2M3, RM: 0, Wrap: 0, Scales: 125,127, Expected: -108, Actual: -108
 11050.01ns INFO     cocotb.tb                          Format: E2M1xE5M2, RM: 2, Wrap: 0, Scales: 113,132, Expected: -8388608, Actual: -8388608
 11560.01ns INFO     cocotb.tb                          Format: INT8xINT8_SYM, RM: 1, Wrap: 0, Scales: 137,115, Expected: -106, Actual: -106
 12070.01ns INFO     cocotb.tb                          Format: E3M2xE2M1, RM: 2, Wrap: 1, Scales: 134,113, Expected: -435, Actual: -435
 12580.01ns INFO     cocotb.tb                          Format: E5M2xE2M1, RM: 1, Wrap: 0, Scales: 122,124, Expected: -187732, Actual: -187732
 13090.01ns INFO     cocotb.tb                          Format: E2M1xINT8_SYM, RM: 2, Wrap: 0, Scales: 131,114, Expected: -2, Actual: -2
 13600.01ns INFO     cocotb.tb                          Format: E5M2xE4M3, RM: 3, Wrap: 0, Scales: 138,129, Expected: -2147483648, Actual: -2147483648
 14110.01ns INFO     cocotb.tb                          Format: INT8xE2M1, RM: 1, Wrap: 0, Scales: 130,138, Expected: -79101952, Actual: -79101952
 14620.01ns INFO     cocotb.tb                          Format: E3M2xINT8_SYM, RM: 3, Wrap: 1, Scales: 126,121, Expected: 234, Actual: 234
 15130.01ns INFO     cocotb.tb                          Format: E2M1xE4M3, RM: 3, Wrap: 1, Scales: 119,110, Expected: -1, Actual: -1
 15640.01ns INFO     cocotb.tb                          Format: E5M2xE5M2, RM: 1, Wrap: 1, Scales: 127,128, Expected: 2143289344, Actual: 2143289344
 16150.01ns INFO     cocotb.tb                          Format: E5M2xE4M3, RM: 0, Wrap: 1, Scales: 111,120, Expected: 2143289344, Actual: 2143289344
 16660.01ns INFO     cocotb.tb                          Format: E2M3xE5M2, RM: 0, Wrap: 1, Scales: 117,126, Expected: 37482, Actual: 37482
 17170.01ns INFO     cocotb.tb                          Format: E4M3xE3M2, RM: 1, Wrap: 1, Scales: 134,126, Expected: 23055516, Actual: 23055516
 17680.01ns INFO     cocotb.tb                          Format: E2M3xINT8_SYM, RM: 3, Wrap: 0, Scales: 125,123, Expected: -24, Actual: -24
 18190.01ns INFO     cocotb.tb                          Format: E2M3xINT8, RM: 3, Wrap: 0, Scales: 115,116, Expected: 0, Actual: 0
 18700.01ns INFO     cocotb.tb                          Format: INT8xE2M3, RM: 1, Wrap: 1, Scales: 136,130, Expected: 16080896, Actual: 16080896
 19210.01ns INFO     cocotb.tb                          Format: E4M3xINT8, RM: 2, Wrap: 0, Scales: 127,140, Expected: 2143289344, Actual: 2143289344
 19720.01ns INFO     cocotb.tb                          Format: E5M2xE5M2, RM: 3, Wrap: 1, Scales: 120,119, Expected: 2143289344, Actual: 2143289344
 20230.01ns INFO     cocotb.tb                          Format: INT8_SYMxINT8_SYM, RM: 2, Wrap: 0, Scales: 139,132, Expected: -25657344, Actual: -25657344
 20740.01ns INFO     cocotb.tb                          Format: E4M3xINT8_SYM, RM: 0, Wrap: 0, Scales: 137,136, Expected: 2147483647, Actual: 2147483647
 21250.01ns INFO     cocotb.tb                          Format: INT8_SYMxE2M3, RM: 1, Wrap: 1, Scales: 134,115, Expected: -100, Actual: -100
 21760.01ns INFO     cocotb.tb                          Format: E3M2xINT8, RM: 0, Wrap: 0, Scales: 113,128, Expected: -2, Actual: -2
 22270.01ns INFO     cocotb.tb                          Format: INT8xE2M3, RM: 2, Wrap: 0, Scales: 122,139, Expected: -448384, Actual: -448384
 22780.01ns INFO     cocotb.tb                          Format: E2M3xE5M2, RM: 0, Wrap: 1, Scales: 137,133, Expected: -261474304, Actual: -261474304
 23290.01ns INFO     cocotb.tb                          Format: E2M3xE5M2, RM: 3, Wrap: 1, Scales: 110,117, Expected: 2143289344, Actual: 2143289344
 23800.01ns INFO     cocotb.tb                          Format: E2M3xE2M3, RM: 0, Wrap: 1, Scales: 132,120, Expected: 5071, Actual: 5071
 24310.01ns INFO     cocotb.tb                          Format: E4M3xINT8_SYM, RM: 2, Wrap: 0, Scales: 121,117, Expected: 1, Actual: 1
 24820.01ns INFO     cocotb.tb                          Format: INT8xE4M3, RM: 0, Wrap: 1, Scales: 123,136, Expected: -1579932, Actual: -1579932
 25330.01ns INFO     cocotb.tb                          Format: E5M2xE5M2, RM: 1, Wrap: 1, Scales: 126,117, Expected: 2143289344, Actual: 2143289344
 25840.01ns INFO     cocotb.tb                          Format: E3M2xINT8, RM: 3, Wrap: 0, Scales: 125,117, Expected: 3, Actual: 3
 26350.01ns INFO     cocotb.tb                          Format: INT8xE4M3, RM: 2, Wrap: 0, Scales: 117,140, Expected: 2143289344, Actual: 2143289344
 26860.01ns INFO     cocotb.tb                          Format: E3M2xE3M2, RM: 1, Wrap: 0, Scales: 140,124, Expected: -19799040, Actual: -19799040
 27370.01ns INFO     cocotb.tb                          Format: INT8_SYMxE3M2, RM: 2, Wrap: 0, Scales: 122,127, Expected: 267, Actual: 267
 27880.01ns INFO     cocotb.tb                          Format: INT8_SYMxE4M3, RM: 0, Wrap: 1, Scales: 124,128, Expected: -80590, Actual: -80590
 28390.01ns INFO     cocotb.tb                          Format: E4M3xE2M3, RM: 3, Wrap: 0, Scales: 123,135, Expected: 2143289344, Actual: 2143289344
 28900.01ns INFO     cocotb.tb                          Format: E5M2xE4M3, RM: 2, Wrap: 0, Scales: 120,133, Expected: -13015480, Actual: -13015480
 29410.01ns INFO     cocotb.tb                          Format: INT8_SYMxE3M2, RM: 1, Wrap: 0, Scales: 139,121, Expected: 1415936, Actual: 1415936
 29920.01ns INFO     cocotb.tb                          Format: E2M3xE5M2, RM: 2, Wrap: 0, Scales: 124,122, Expected: 2143289344, Actual: 2143289344
 30430.01ns INFO     cocotb.tb                          Format: E4M3xE2M1, RM: 2, Wrap: 1, Scales: 137,127, Expected: -305564416, Actual: -305564416
 30940.01ns INFO     cocotb.tb                          Format: E5M2xE2M3, RM: 1, Wrap: 0, Scales: 130,118, Expected: 2143289344, Actual: 2143289344
 31450.01ns INFO     cocotb.tb                          Format: E2M3xE2M1, RM: 3, Wrap: 0, Scales: 130,127, Expected: 9344, Actual: 9344
 31960.01ns INFO     cocotb.tb                          Format: E2M1xE3M2, RM: 0, Wrap: 0, Scales: 121,131, Expected: -15960, Actual: -15960
 32470.01ns INFO     cocotb.tb                          Format: INT8xE2M3, RM: 3, Wrap: 1, Scales: 129,112, Expected: -1, Actual: -1
 32980.01ns INFO     cocotb.tb                          Format: E5M2xE3M2, RM: 0, Wrap: 1, Scales: 129,113, Expected: 4982, Actual: 4982
 33490.01ns INFO     cocotb.tb                          Format: E3M2xE3M2, RM: 0, Wrap: 0, Scales: 138,124, Expected: -48534272, Actual: -48534272
 34000.01ns INFO     cocotb.tb                          Format: E5M2xE4M3, RM: 3, Wrap: 1, Scales: 121,125, Expected: 2143289344, Actual: 2143289344
 34510.01ns INFO     cocotb.tb                          Format: E5M2xE2M1, RM: 2, Wrap: 0, Scales: 135,132, Expected: 2147483647, Actual: 2147483647
 34510.01ns INFO     cocotb.regression                  test.test_mxfp_mac_randomized passed
 34510.01ns INFO     cocotb.regression                  running test.test_fast_start_scale_compression (11/34)
 34510.01ns INFO     cocotb.tb                          Start Fast Start (Scale Compression) Test
 35020.01ns INFO     cocotb.tb                          Format: E4M3xE4M3, RM: 0, Wrap: 0, Scales: 128,127, Expected: 16384, Actual: 16384
 35410.01ns INFO     cocotb.regression                  test.test_fast_start_scale_compression passed
 35410.01ns INFO     cocotb.regression                  running test.test_yaml_cases (12/34)
 35410.01ns INFO     cocotb.tb                          Start YAML Test Cases from TEST_MX_E2E.yaml
 35410.01ns INFO     cocotb.tb                          Running Case 1: Basic E4M3 x E4M3 multiplication of 1.0 * 1.0 with default scales (2^0). 32 elements summed.
 35920.01ns INFO     cocotb.tb                          Format: E4M3xE4M3, RM: 0, Wrap: 0, Scales: 127,127, Expected: 8192, Actual: 8192
 35920.01ns INFO     cocotb.tb                          Running Case 2: Basic E5M2 x E5M2 multiplication of 1.0 * 1.0. 32 elements summed.
 36430.01ns INFO     cocotb.tb                          Format: E5M2xE5M2, RM: 0, Wrap: 0, Scales: 127,127, Expected: 8192, Actual: 8192
 36430.01ns INFO     cocotb.tb                          Running Case 3: Positive scale application (2^1 * 2^0 = 2^1). Result should be doubled.
 36940.01ns INFO     cocotb.tb                          Format: E4M3xE4M3, RM: 0, Wrap: 0, Scales: 128,127, Expected: 16384, Actual: 16384
 36940.01ns INFO     cocotb.tb                          Running Case 4: Negative scale application (2^-1 * 2^0 = 2^-1). Result should be halved.
 37450.01ns INFO     cocotb.tb                          Format: E4M3xE4M3, RM: 0, Wrap: 0, Scales: 126,127, Expected: 4096, Actual: 4096
 37450.01ns INFO     cocotb.tb                          Running Case 5: Negative product accumulation. 1.0 * -1.0 = -1.0. Summed 32 times is -32.0.
 37960.01ns INFO     cocotb.tb                          Format: E4M3xE4M3, RM: 0, Wrap: 0, Scales: 127,127, Expected: -8192, Actual: -8192
 37960.01ns INFO     cocotb.tb                          Running Case 6: MXFP6 (E3M2) basic multiplication. 1.0 (0x0C) * 1.0 (0x0C) = 1.0.
 38470.01ns INFO     cocotb.tb                          Format: E3M2xE3M2, RM: 0, Wrap: 0, Scales: 127,127, Expected: 8192, Actual: 8192
 38470.01ns INFO     cocotb.tb                          Running Case 7: MXFP6 (E2M3) basic multiplication. 1.0 (0x08) * 1.0 (0x08) = 1.0.
 38980.01ns INFO     cocotb.tb                          Format: E2M3xE2M3, RM: 0, Wrap: 0, Scales: 127,127, Expected: 8192, Actual: 8192
 38980.01ns INFO     cocotb.tb                          Running Case 8: MXFP4 (E2M1) basic multiplication. 1.0 (0x02) * 1.0 (0x02) = 1.0.
 39490.01ns INFO     cocotb.tb                          Format: E2M1xE2M1, RM: 0, Wrap: 0, Scales: 127,127, Expected: 8192, Actual: 8192
 39490.01ns INFO     cocotb.tb                          Running Case 9: MXINT8 multiplication. 64 (0x40) * 64 (0x40). With implicit 2^-6 scale per operand, this equals 1.0.
 40000.01ns INFO     cocotb.tb                          Format: INT8xINT8, RM: 0, Wrap: 0, Scales: 127,127, Expected: 8192, Actual: 8192
 40000.01ns INFO     cocotb.tb                          Running Case 10: MXINT8_SYM. -128 (0x80) is treated as -127. -127 * 64 * 32 = -260096. Scaled by 2^-12 and then fixed point 2^8.
 40510.01ns INFO     cocotb.tb                          Format: INT8_SYMxINT8, RM: 0, Wrap: 0, Scales: 127,127, Expected: -16256, Actual: -16256
 40510.01ns INFO     cocotb.tb                          Running Case 11: Mixed Precision MAC. E4M3 (1.0) x E5M2 (1.0). Result 1.0 summed 32 times.
 41020.01ns INFO     cocotb.tb                          Format: E4M3xE5M2, RM: 0, Wrap: 0, Scales: 127,127, Expected: 8192, Actual: 8192
 41020.01ns INFO     cocotb.tb                          Running Case 12: Rounding Mode RNE (Round Ties to Even). 0.28125 * 0.5625 = 0.158203125. Magnitude in fixed point is 40.5. RNE rounds 40.5 to 40 (even).
 41530.01ns INFO     cocotb.tb                          Format: E4M3xE4M3, RM: 3, Wrap: 0, Scales: 127,127, Expected: 1296, Actual: 1296
 41530.01ns INFO     cocotb.tb                          Running Case 13: Positive Saturation. Large scale and large elements resulting in overflow of 32-bit signed range, clamped to max positive.
 42040.01ns INFO     cocotb.tb                          Format: E5M2xE5M2, RM: 0, Wrap: 0, Scales: 140,127, Expected: 2147483647, Actual: 2147483647
 42040.01ns INFO     cocotb.tb                          Running Case 14: Negative Saturation. Clamped to max negative.
 42550.01ns INFO     cocotb.tb                          Format: E5M2xE5M2, RM: 0, Wrap: 0, Scales: 140,127, Expected: -2147483648, Actual: -2147483648
 42550.01ns INFO     cocotb.tb                          Running Case 15: Overflow Wrap. Same overflow as case 13 but with wrapping behavior.
 43060.01ns INFO     cocotb.tb                          Format: E5M2xE5M2, RM: 0, Wrap: 1, Scales: 140,127, Expected: 0, Actual: 0
 43060.01ns INFO     cocotb.tb                          Running Case 16: E4M3 Zero Multiplication. 0.0 * 1.0 = 0.0.
 43570.01ns INFO     cocotb.tb                          Format: E4M3xE4M3, RM: 0, Wrap: 0, Scales: 127,127, Expected: 0, Actual: 0
 43570.01ns INFO     cocotb.tb                          Running Case 17: E4M3 Max Finite. 448.0 (0x7E) * 1.0 (0x38) * 32. Scaled to fixed point.
 44080.01ns INFO     cocotb.tb                          Format: E4M3xE4M3, RM: 0, Wrap: 0, Scales: 127,127, Expected: 3670016, Actual: 3670016
 44080.01ns INFO     cocotb.tb                          Running Case 18: E4M3 Min Subnormal with positive scale. 2^-7 (0x04) * 1.0 * 2^11 (scale 138). Result 16.0 * 32 = 512.
 44590.01ns INFO     cocotb.tb                          Format: E4M3xE4M3, RM: 0, Wrap: 0, Scales: 138,127, Expected: 131072, Actual: 131072
 44590.01ns INFO     cocotb.tb                          Running Case 19: E5M2 Zero Multiplication. 0.0 * 1.0 = 0.0.
 45100.01ns INFO     cocotb.tb                          Format: E5M2xE5M2, RM: 0, Wrap: 0, Scales: 127,127, Expected: 0, Actual: 0
 45100.01ns INFO     cocotb.tb                          Running Case 20: E5M2 Max Finite. 57344.0 (0x7B) * 1.0 (0x3C) * 32. Result saturates to 32-bit max if scale high, but here it fits.
 45610.01ns INFO     cocotb.tb                          Format: E5M2xE5M2, RM: 0, Wrap: 0, Scales: 127,127, Expected: 469762048, Actual: 469762048
 45610.01ns INFO     cocotb.tb                          Running Case 21: E5M2 Subnormal/Small with positive scale. 2^-7 (0x20) * 1.0 * 2^16 (scale 143). Result 512.0 * 32 = 16384.
 46120.01ns INFO     cocotb.tb                          Format: E5M2xE5M2, RM: 0, Wrap: 0, Scales: 143,127, Expected: 4194304, Actual: 4194304
 46120.01ns INFO     cocotb.tb                          Running Case 22: E5M2 NaN (special value). Standardized OCP exception handling (0x7FC00000).
 46630.01ns INFO     cocotb.tb                          Format: E5M2xE5M2, RM: 0, Wrap: 0, Scales: 127,127, Expected: 2143289344, Actual: 2143289344
 46630.01ns INFO     cocotb.tb                          Running Case 23: E2M1 (FP4) Zero. 0.0 * 1.0 = 0.0.
 47140.01ns INFO     cocotb.tb                          Format: E2M1xE2M1, RM: 0, Wrap: 0, Scales: 127,127, Expected: 0, Actual: 0
 47140.01ns INFO     cocotb.tb                          Running Case 24: E2M1 (FP4) Max. 6.0 (0x07) * 1.0 (0x02) * 32. Fixed point: 49152.
 47650.01ns INFO     cocotb.tb                          Format: E2M1xE2M1, RM: 0, Wrap: 0, Scales: 127,127, Expected: 49152, Actual: 49152
 47650.01ns INFO     cocotb.tb                          Running Case 25: E2M1 (FP4) Min Subnormal with positive scale. 0.5 (0x01) * 1.0 * 2^3 (scale 130). Result 4.0 * 32 = 128.
 48160.01ns INFO     cocotb.tb                          Format: E2M1xE2M1, RM: 0, Wrap: 0, Scales: 130,127, Expected: 32768, Actual: 32768
 48160.01ns INFO     cocotb.tb                          Running Case 26: Mixed Precision E2M1 (FP4) x E4M3 (FP8). 1.0 * 1.0 = 1.0. Summed 32 times.
 48670.01ns INFO     cocotb.tb                          Format: E2M1xE4M3, RM: 0, Wrap: 0, Scales: 127,127, Expected: 8192, Actual: 8192
 48670.01ns INFO     cocotb.tb                          Running Case 27: E4M3 NaN (special value). Standardized OCP exception handling (0x7FC00000).
 49180.01ns INFO     cocotb.tb                          Format: E4M3xE4M3, RM: 0, Wrap: 0, Scales: 127,127, Expected: 2143289344, Actual: 2143289344
 49180.01ns INFO     cocotb.regression                  test.test_yaml_cases passed
 49180.01ns INFO     cocotb.regression                  running test.test_mx_fp4_yaml (13/34)
 49180.01ns INFO     cocotb.tb                          Start YAML Test Cases from TEST_MX_FP4.yaml
 49180.01ns INFO     cocotb.tb                          Running Case 1: Standard MXFP4 (E2M1) multiplication. 32 elements of 1.0 * 1.0 = 1.0. Summed is 32.0.
 49690.01ns INFO     cocotb.tb                          Format: E2M1xE2M1, RM: 0, Wrap: 0, Scales: 127,127, Expected: 8192, Actual: 8192
 49690.01ns INFO     cocotb.tb                          Running Case 2: Packed MXFP4 (E2M1) multiplication. 32 elements of 1.0 * 1.0 = 1.0. Summed is 32.0.
 50040.01ns INFO     cocotb.tb                          Format: E2M1xE2M1, RM: 0, Wrap: 0, Scales: 127,127, Expected: 8192, Actual: 8192
 50040.01ns INFO     cocotb.tb                          Running Case 3: Mixed Values Packed MXFP4 (E2M1). 1.0 (0x02) * 2.0 (0x04) = 2.0. Summed is 64.0.
 50390.01ns INFO     cocotb.tb                          Format: E2M1xE2M1, RM: 0, Wrap: 0, Scales: 127,127, Expected: 16384, Actual: 16384
 50390.01ns INFO     cocotb.tb                          Running Case 4: Negative Values Packed MXFP4 (E2M1). -1.0 (0x0A) * 1.0 (0x02) = -1.0. Summed is -32.0.
 50740.01ns INFO     cocotb.tb                          Format: E2M1xE2M1, RM: 0, Wrap: 0, Scales: 127,127, Expected: -8192, Actual: -8192
 50740.01ns INFO     cocotb.tb                          Running Case 5: Subnormal Values Packed MXFP4 (E2M1). 0.5 (0x01) * 1.0 (0x02) = 0.5. Summed is 16.0.
 51090.01ns INFO     cocotb.tb                          Format: E2M1xE2M1, RM: 0, Wrap: 0, Scales: 127,127, Expected: 4096, Actual: 4096
 51090.01ns INFO     cocotb.tb                          Running Case 6: Edge Case Max Values Packed MXFP4 (E2M1). 6.0 (0x07) * 6.0 (0x07) = 36.0. Summed is 1152.0.
 51440.01ns INFO     cocotb.tb                          Format: E2M1xE2M1, RM: 0, Wrap: 0, Scales: 127,127, Expected: 294912, Actual: 294912
 51440.01ns INFO     cocotb.tb                          Running Case 7: Full range FP4 (E2M1) multiplication. All 16 values squared and summed twice. Expected: 274.0.
 51790.01ns INFO     cocotb.tb                          Format: E2M1xE2M1, RM: 0, Wrap: 0, Scales: 127,127, Expected: 70144, Actual: 70144
 51790.01ns INFO     cocotb.tb                          Running Case 7: Full range FP4 (E2M1) multiplication. All 16 values squared and summed twice. Expected: 274.0.
 52140.01ns INFO     cocotb.tb                          Format: E2M1xE2M1, RM: 0, Wrap: 0, Scales: 127,127, Expected: 70144, Actual: 70144
 52140.01ns INFO     cocotb.regression                  test.test_mx_fp4_yaml passed
 52140.01ns INFO     cocotb.regression                  running test.test_min_max_zero_yaml (14/34)
 52140.01ns INFO     cocotb.tb                          Start YAML Test Cases from TEST_MIN_MAX_ZERO.yaml
 52140.01ns INFO     cocotb.tb                          Running Case 101: E4M3 Max Finite * 1.0
 52650.01ns INFO     cocotb.tb                          Format: E4M3xE4M3, RM: 0, Wrap: 0, Scales: 127,127, Expected: 3670016, Actual: 3670016
 52650.01ns INFO     cocotb.tb                          Running Case 102: E4M3 Negative Max Finite * 1.0
 53160.01ns INFO     cocotb.tb                          Format: E4M3xE4M3, RM: 0, Wrap: 0, Scales: 127,127, Expected: -3670016, Actual: -3670016
 53160.01ns INFO     cocotb.tb                          Running Case 103: E4M3 Subnormal (0x01) * Max Finite (0x7E)
 53670.01ns INFO     cocotb.tb                          Format: E4M3xE4M3, RM: 0, Wrap: 0, Scales: 127,127, Expected: 7168, Actual: 7168
 53670.01ns INFO     cocotb.tb                          Running Case 104: E4M3 Negative Subnormal (0x81) * Max Finite (0x7E)
 54180.01ns INFO     cocotb.tb                          Format: E4M3xE4M3, RM: 0, Wrap: 0, Scales: 127,127, Expected: -7168, Actual: -7168
 54180.01ns INFO     cocotb.tb                          Running Case 105: E4M3 Zero * Max Finite
 54690.01ns INFO     cocotb.tb                          Format: E4M3xE4M3, RM: 0, Wrap: 0, Scales: 127,127, Expected: 0, Actual: 0
 54690.01ns INFO     cocotb.tb                          Running Case 106: E5M2 Max Finite * 1.0
 55200.01ns INFO     cocotb.tb                          Format: E5M2xE5M2, RM: 0, Wrap: 0, Scales: 127,127, Expected: 469762048, Actual: 469762048
 55200.01ns INFO     cocotb.tb                          Running Case 107: E5M2 Negative Max Finite * 1.0
 55710.01ns INFO     cocotb.tb                          Format: E5M2xE5M2, RM: 0, Wrap: 0, Scales: 127,127, Expected: -469762048, Actual: -469762048
 55710.01ns INFO     cocotb.tb                          Running Case 108: E5M2 Subnormal (0x01) * Max Finite (0x7B)
 56220.01ns INFO     cocotb.tb                          Format: E5M2xE5M2, RM: 0, Wrap: 0, Scales: 127,127, Expected: 7168, Actual: 7168
 56220.01ns INFO     cocotb.tb                          Running Case 109: E5M2 Negative Subnormal (0x81) * Max Finite (0x7B)
 56730.01ns INFO     cocotb.tb                          Format: E5M2xE5M2, RM: 0, Wrap: 0, Scales: 127,127, Expected: -7168, Actual: -7168
 56730.01ns INFO     cocotb.tb                          Running Case 110: E5M2 Infinity * 1.0
 57240.01ns INFO     cocotb.tb                          Format: E5M2xE5M2, RM: 0, Wrap: 0, Scales: 127,127, Expected: 2139095040, Actual: 2139095040
 57240.01ns INFO     cocotb.tb                          Running Case 111: E5M2 Negative Infinity * 1.0
 57750.01ns INFO     cocotb.tb                          Format: E5M2xE5M2, RM: 0, Wrap: 0, Scales: 127,127, Expected: -8388608, Actual: -8388608
