ultra_tiny_log.txt
rm -f results.xml
"make" -f Makefile results.xml
make[1]: Entering directory '/app/test'
mkdir -p sim_build/rtl
/usr/bin/iverilog -o sim_build/rtl/sim.vvp -s tb -g2012 -Ptb.ACCUMULATOR_WIDTH=24 -Ptb.ALIGNER_WIDTH=32 -Ptb.SUPPORT_E5M2=0 -Ptb.SUPPORT_MXFP6=0 -Ptb.SUPPORT_PIPELINING=0 -Ptb.ENABLE_SHARED_SCALING=0 -DRTL_SIM -I../src -f sim_build/rtl/cmds.f -DRTL_SIM -I../src -f sim_build/rtl/cmds.f  ../src/project.v ../src/fp8_mul.v ../src/fp8_mul_lns.v ../src/fp8_mul_serial_lns.v ../src/fp8_aligner.v ../src/accumulator.v ../src/lzc40.v ../src/fixed_to_float.v /app/test/tb.v
Command File: Warning: default timescale is being set multiple times.
                     : using the last valid +timescale found.
../src/project.v:855: warning: Port 6 (data_in) of accumulator expects 24 bits, got 32.
../src/project.v:855:        : Pruning 8 high bits of the expression.
rm -f results.xml
COCOTB_TEST_MODULES=test,test_coverage,test_performance,test_short_protocol,test_exhaustive COCOTB_TESTCASE= COCOTB_TEST_FILTER= COCOTB_TOPLEVEL=tb TOPLEVEL_LANG=verilog \
         /usr/bin/vvp -M /home/jules/.pyenv/versions/3.12.13/lib/python3.12/site-packages/cocotb/libs -m libcocotbvpi_icarus   sim_build/rtl/sim.vvp
     -.--ns INFO     gpi                                ..mbed/gpi_embed.cpp:93   in _embed_init_python              Using Python 3.12.4 interpreter at /home/jules/.pyenv/versions/3.12.13/bin/python3.12
     -.--ns INFO     gpi                                ../gpi/GpiCommon.cpp:79   in gpi_print_registered_impl       VPI registered
     0.00ns INFO     cocotb                             Running on Icarus Verilog version 12.0 (stable)
     0.00ns INFO     cocotb                             Seeding Python random module with 1777187293
     0.00ns INFO     cocotb                             Initialized cocotb v2.0.1 from /home/jules/.pyenv/versions/3.12.13/lib/python3.12/site-packages/cocotb
     0.00ns ERROR    cocotb.regression                  Configuring the assertion rewrite hook using pytest 8.4.2 failed. Please file a bug report!
                                                        Traceback (most recent call last):
                                                          File "/home/jules/.pyenv/versions/3.12.13/lib/python3.12/site-packages/cocotb/regression.py", line 278, in setup_pytest_assertion_rewriting
                                                            pytest_conf = Config.fromdictargs(
                                                                          ^^^^^^^^^^^^^^^^^^^^
                                                          File "/home/jules/.pyenv/versions/3.12.13/lib/python3.12/site-packages/_pytest/config/__init__.py", line 1201, in fromdictargs
                                                            config.parse(args, addopts=False)
                                                          File "/home/jules/.pyenv/versions/3.12.13/lib/python3.12/site-packages/_pytest/config/__init__.py", line 1527, in parse
                                                            self._preparse(args, addopts=addopts)
                                                          File "/home/jules/.pyenv/versions/3.12.13/lib/python3.12/site-packages/_pytest/config/__init__.py", line 1412, in _preparse
                                                            self.pluginmanager.load_setuptools_entrypoints("pytest11")
                                                          File "/home/jules/.pyenv/versions/3.12.13/lib/python3.12/site-packages/pluggy/_manager.py", line 416, in load_setuptools_entrypoints
                                                            plugin = ep.load()
                                                                     ^^^^^^^^^
                                                          File "/home/jules/.pyenv/versions/3.12.13/lib/python3.12/importlib/metadata/__init__.py", line 205, in load
                                                            module = import_module(match.group('module'))
                                                                     ^^^^^^^^^^^^^^^^^^^^^^^^^^^^^^^^^^^^
                                                          File "/home/jules/.pyenv/versions/3.12.13/lib/python3.12/importlib/__init__.py", line 90, in import_module
                                                            return _bootstrap._gcd_import(name[level:], package, level)
                                                                   ^^^^^^^^^^^^^^^^^^^^^^^^^^^^^^^^^^^^^^^^^^^^^^^^^^^^
                                                          File "<frozen importlib._bootstrap>", line 1387, in _gcd_import
                                                          File "<frozen importlib._bootstrap>", line 1360, in _find_and_load
                                                          File "<frozen importlib._bootstrap>", line 1310, in _find_and_load_unlocked
                                                          File "<frozen importlib._bootstrap>", line 488, in _call_with_frames_removed
                                                          File "<frozen importlib._bootstrap>", line 1387, in _gcd_import
                                                          File "<frozen importlib._bootstrap>", line 1360, in _find_and_load
                                                          File "<frozen importlib._bootstrap>", line 1324, in _find_and_load_unlocked
                                                        ModuleNotFoundError: No module named 'cocotb_tools.pytest'
     0.00ns INFO     cocotb                             Running tests
     0.00ns INFO     cocotb.regression                  running test.test_mxfp8_mac_shared_scale (1/36)
     0.00ns INFO     cocotb.tb                          Start MXFP8 MAC Shared Scale Test
   500.00ns INFO     cocotb.tb                          Format: E4M3xE4M3, RM: 0, Wrap: 0, Scales: 128,127, Expected: 8192, Actual: 8192
  1010.00ns INFO     cocotb.tb                          Format: E4M3xE4M3, RM: 0, Wrap: 0, Scales: 126,127, Expected: 8192, Actual: 8192
  1010.00ns INFO     cocotb.regression                  test.test_mxfp8_mac_shared_scale passed
  1010.00ns INFO     cocotb.regression                  running test.test_mxfp8_mac_e4m3 (2/36)
  1010.00ns INFO     cocotb.tb                          Start MXFP8 MAC Test (E4M3)
  1520.00ns INFO     cocotb.tb                          Format: E4M3xE4M3, RM: 0, Wrap: 0, Scales: 127,127, Expected: 8192, Actual: 8192
  1520.00ns INFO     cocotb.regression                  test.test_mxfp8_mac_e4m3 passed
  1520.00ns INFO     cocotb.regression                  running test.test_mxfp8_mac_e5m2 (3/36)
  1520.00ns INFO     cocotb.tb                          Start MXFP8 MAC Test (E5M2)
  2030.00ns INFO     cocotb.tb                          Format: E5M2xE5M2, RM: 0, Wrap: 0, Scales: 127,127, Expected: 0, Actual: 0
  2030.00ns INFO     cocotb.regression                  test.test_mxfp8_mac_e5m2 passed
  2030.00ns INFO     cocotb.regression                  running test.test_rounding_modes (4/36)
  2030.00ns INFO     cocotb.tb                          Start Rounding Modes Test
  2540.00ns INFO     cocotb.tb                          Format: E4M3xE4M3, RM: 0, Wrap: 0, Scales: 127,127, Expected: 1280, Actual: 1280
  3050.00ns INFO     cocotb.tb                          Format: E4M3xE4M3, RM: 1, Wrap: 0, Scales: 127,127, Expected: 1312, Actual: 1312
  3560.00ns INFO     cocotb.tb                          Format: E4M3xE4M3, RM: 2, Wrap: 0, Scales: 127,127, Expected: 1280, Actual: 1280
  4070.00ns INFO     cocotb.tb                          Format: E4M3xE4M3, RM: 3, Wrap: 0, Scales: 127,127, Expected: 1280, Actual: 1280
  4580.00ns INFO     cocotb.tb                          Format: E4M3xE4M3, RM: 0, Wrap: 0, Scales: 127,127, Expected: -1280, Actual: -1280
  5090.00ns INFO     cocotb.tb                          Format: E4M3xE4M3, RM: 1, Wrap: 0, Scales: 127,127, Expected: -1280, Actual: -1280
  5600.00ns INFO     cocotb.tb                          Format: E4M3xE4M3, RM: 2, Wrap: 0, Scales: 127,127, Expected: -1312, Actual: -1312
  6110.00ns INFO     cocotb.tb                          Format: E4M3xE4M3, RM: 3, Wrap: 0, Scales: 127,127, Expected: -1280, Actual: -1280
  6110.00ns INFO     cocotb.regression                  test.test_rounding_modes passed
  6110.00ns INFO     cocotb.regression                  running test.test_overflow_saturation (5/36)
  6110.00ns INFO     cocotb.tb                          Skipping E5M2 Overflow Saturation Test (SUPPORT_E5M2=0)
  6110.00ns INFO     cocotb.regression                  test.test_overflow_saturation passed
  6110.00ns INFO     cocotb.regression                  running test.test_accumulator_saturation (6/36)
  6110.01ns INFO     cocotb.tb                          Skipping E5M2 Accumulator Saturation Test (SUPPORT_E5M2=0)
  6110.01ns INFO     cocotb.regression                  test.test_accumulator_saturation passed
  6110.01ns INFO     cocotb.regression                  running test.test_mxfp4_packed_serial (7/36)
  6110.01ns INFO     cocotb.tb                          Skipping Serial Packed FP4 Test (SUPPORT_PACKED_SERIAL=0)
  6110.01ns INFO     cocotb.regression                  test.test_mxfp4_packed_serial passed
  6110.01ns INFO     cocotb.regression                  running test.test_mxfp4_packed (8/36)
  6110.01ns INFO     cocotb.tb                          Start Packed FP4 Test
  6460.01ns INFO     cocotb.tb                          Format: E2M1xE2M1, RM: 0, Wrap: 0, Scales: 127,127, Expected: 8192, Actual: 8192
  6460.01ns INFO     cocotb.regression                  test.test_mxfp4_packed passed
  6460.01ns INFO     cocotb.regression                  running test.test_mixed_precision (9/36)
  6460.01ns INFO     cocotb.tb                          Start Mixed-Precision MAC Test
  6970.01ns INFO     cocotb.tb                          Format: E4M3xE5M2, RM: 0, Wrap: 0, Scales: 127,127, Expected: 0, Actual: 0
  7480.01ns INFO     cocotb.tb                          Format: E3M2xINT8, RM: 0, Wrap: 0, Scales: 127,127, Expected: 0, Actual: 0
  7480.01ns INFO     cocotb.regression                  test.test_mixed_precision passed
  7480.01ns INFO     cocotb.regression                  running test.test_mxfp_mac_randomized (10/36)
  7480.01ns INFO     cocotb.tb                          Start Randomized MXFP MAC Test (E4M3=1, E5M2=0, MXFP6=0, MXFP4=1, ADV=1, MIX=1)
  7990.01ns INFO     cocotb.tb                          Format: INT8_SYMxINT8, RM: 0, Wrap: 0, Scales: 113,125, Expected: -1018, Actual: -1018
  8500.01ns INFO     cocotb.tb                          Format: INT8_SYMxE4M3, RM: 0, Wrap: 1, Scales: 131,114, Expected: 200733, Actual: 200733
  9010.01ns INFO     cocotb.tb                          Format: E4M3xE2M1, RM: 0, Wrap: 0, Scales: 121,127, Expected: 384643, Actual: 384643
  9520.01ns INFO     cocotb.tb                          Format: E2M1xINT8_SYM, RM: 1, Wrap: 1, Scales: 119,112, Expected: 220, Actual: 220
 10030.01ns INFO     cocotb.tb                          Format: INT8xE4M3, RM: 2, Wrap: 1, Scales: 132,121, Expected: 162523, Actual: 162523
 10540.01ns INFO     cocotb.tb                          Format: INT8_SYMxE2M1, RM: 1, Wrap: 1, Scales: 123,128, Expected: -3810, Actual: -3810
 11050.01ns INFO     cocotb.tb                          Format: E2M1xE4M3, RM: 1, Wrap: 1, Scales: 128,138, Expected: -11828, Actual: -11828
 11560.01ns INFO     cocotb.tb                          Format: E4M3xE2M1, RM: 3, Wrap: 0, Scales: 138,110, Expected: 76809, Actual: 76809
 12070.01ns INFO     cocotb.tb                          Format: E4M3xE4M3, RM: 0, Wrap: 1, Scales: 116,121, Expected: -7524184, Actual: -7524184
 12580.01ns INFO     cocotb.tb                          Format: E2M1xE4M3, RM: 2, Wrap: 0, Scales: 135,129, Expected: 2143289344, Actual: 2143289344
 13090.01ns INFO     cocotb.tb                          Format: INT8xINT8_SYM, RM: 3, Wrap: 1, Scales: 121,140, Expected: 2444, Actual: 2444
 13600.01ns INFO     cocotb.tb                          Format: E2M1xINT8_SYM, RM: 2, Wrap: 1, Scales: 137,111, Expected: 4848, Actual: 4848
 14110.01ns INFO     cocotb.tb                          Format: E2M1xE4M3, RM: 1, Wrap: 1, Scales: 139,137, Expected: -554220, Actual: -554220
 14620.01ns INFO     cocotb.tb                          Format: INT8xE2M1, RM: 3, Wrap: 0, Scales: 131,120, Expected: 4822, Actual: 4822
 15130.01ns INFO     cocotb.tb                          Format: E2M1xE2M1, RM: 2, Wrap: 1, Scales: 116,129, Expected: 2816, Actual: 2816
 15640.01ns INFO     cocotb.tb                          Format: E2M1xE4M3, RM: 3, Wrap: 0, Scales: 136,123, Expected: 2143289344, Actual: 2143289344
 16150.01ns INFO     cocotb.tb                          Format: E2M1xE4M3, RM: 0, Wrap: 1, Scales: 118,132, Expected: 2143289344, Actual: 2143289344
 16660.01ns INFO     cocotb.tb                          Format: E4M3xINT8, RM: 0, Wrap: 0, Scales: 127,126, Expected: 58098, Actual: 58098
 17170.01ns INFO     cocotb.tb                          Format: INT8xINT8_SYM, RM: 0, Wrap: 1, Scales: 136,121, Expected: -2120, Actual: -2120
 17680.01ns INFO     cocotb.tb                          Format: INT8_SYMxE2M1, RM: 2, Wrap: 0, Scales: 140,127, Expected: 910, Actual: 910
 18190.01ns INFO     cocotb.tb                          Format: E2M1xE4M3, RM: 2, Wrap: 1, Scales: 119,133, Expected: 167465, Actual: 167465
 18700.01ns INFO     cocotb.tb                          Format: INT8xE4M3, RM: 2, Wrap: 0, Scales: 119,116, Expected: -124209, Actual: -124209
 19210.01ns INFO     cocotb.tb                          Format: E4M3xE2M1, RM: 0, Wrap: 1, Scales: 133,132, Expected: -145720, Actual: -145720
 19720.01ns INFO     cocotb.tb                          Format: E2M1xINT8_SYM, RM: 1, Wrap: 1, Scales: 120,140, Expected: -8552, Actual: -8552
 20230.01ns INFO     cocotb.tb                          Format: INT8_SYMxE2M1, RM: 2, Wrap: 1, Scales: 110,123, Expected: 1484, Actual: 1484
 20740.01ns INFO     cocotb.tb                          Format: INT8_SYMxE4M3, RM: 3, Wrap: 0, Scales: 119,127, Expected: 102537, Actual: 102537
 21250.01ns INFO     cocotb.tb                          Format: E4M3xE2M1, RM: 2, Wrap: 1, Scales: 135,113, Expected: -163016, Actual: -163016
 21760.01ns INFO     cocotb.tb                          Format: INT8xE4M3, RM: 0, Wrap: 0, Scales: 129,116, Expected: 2143289344, Actual: 2143289344
 22270.01ns INFO     cocotb.tb                          Format: E2M1xE4M3, RM: 3, Wrap: 1, Scales: 118,129, Expected: 797591, Actual: 797591
 22780.01ns INFO     cocotb.tb                          Format: INT8xE2M1, RM: 2, Wrap: 0, Scales: 127,131, Expected: -310, Actual: -310
 23290.01ns INFO     cocotb.tb                          Format: E4M3xINT8, RM: 2, Wrap: 0, Scales: 127,129, Expected: 283911, Actual: 283911
 23800.01ns INFO     cocotb.tb                          Format: E2M1xINT8_SYM, RM: 3, Wrap: 0, Scales: 113,125, Expected: -6206, Actual: -6206
 24310.01ns INFO     cocotb.tb                          Format: E2M1xE2M1, RM: 2, Wrap: 1, Scales: 116,128, Expected: -3712, Actual: -3712
 24820.01ns INFO     cocotb.tb                          Format: E4M3xE2M1, RM: 2, Wrap: 0, Scales: 138,113, Expected: -342938, Actual: -342938
 25330.01ns INFO     cocotb.tb                          Format: E2M1xINT8, RM: 2, Wrap: 0, Scales: 120,112, Expected: 5282, Actual: 5282
 25840.01ns INFO     cocotb.tb                          Format: INT8xINT8_SYM, RM: 3, Wrap: 0, Scales: 134,135, Expected: 1568, Actual: 1568
 26350.01ns INFO     cocotb.tb                          Format: INT8xE4M3, RM: 2, Wrap: 1, Scales: 140,130, Expected: -315417, Actual: -315417
 26860.01ns INFO     cocotb.tb                          Format: E2M1xE2M1, RM: 1, Wrap: 0, Scales: 115,116, Expected: 1920, Actual: 1920
 27370.01ns INFO     cocotb.tb                          Format: E4M3xINT8_SYM, RM: 2, Wrap: 0, Scales: 122,123, Expected: 66338, Actual: 66338
 27880.01ns INFO     cocotb.tb                          Format: INT8xE4M3, RM: 0, Wrap: 0, Scales: 113,129, Expected: -229162, Actual: -229162
 28390.01ns INFO     cocotb.tb                          Format: INT8_SYMxE4M3, RM: 0, Wrap: 0, Scales: 126,116, Expected: 86991, Actual: 86991
 28900.01ns INFO     cocotb.tb                          Format: INT8xINT8, RM: 2, Wrap: 1, Scales: 118,120, Expected: -4569, Actual: -4569
 29410.01ns INFO     cocotb.tb                          Format: E4M3xE4M3, RM: 2, Wrap: 1, Scales: 140,120, Expected: -1537889, Actual: -1537889
 29920.01ns INFO     cocotb.tb                          Format: INT8_SYMxINT8, RM: 3, Wrap: 0, Scales: 114,124, Expected: 3556, Actual: 3556
 30430.01ns INFO     cocotb.tb                          Format: INT8xINT8_SYM, RM: 0, Wrap: 1, Scales: 112,119, Expected: -3449, Actual: -3449
 30940.01ns INFO     cocotb.tb                          Format: INT8_SYMxE2M1, RM: 0, Wrap: 0, Scales: 114,140, Expected: 1006, Actual: 1006
 31450.01ns INFO     cocotb.tb                          Format: E4M3xE4M3, RM: 2, Wrap: 0, Scales: 138,129, Expected: 2143289344, Actual: 2143289344
 31960.01ns INFO     cocotb.tb                          Format: INT8_SYMxE2M1, RM: 0, Wrap: 1, Scales: 113,111, Expected: -774, Actual: -774
 32470.01ns INFO     cocotb.tb                          Format: E2M1xE4M3, RM: 2, Wrap: 0, Scales: 112,110, Expected: -707489, Actual: -707489
 32980.01ns INFO     cocotb.tb                          Format: INT8xE4M3, RM: 2, Wrap: 0, Scales: 119,136, Expected: -180555, Actual: -180555
 32980.01ns INFO     cocotb.regression                  test.test_mxfp_mac_randomized passed
 32980.01ns INFO     cocotb.regression                  running test.test_fast_start_scale_compression (11/36)
 32980.01ns INFO     cocotb.tb                          Start Fast Start (Scale Compression) Test
 33490.01ns INFO     cocotb.tb                          Format: E4M3xE4M3, RM: 0, Wrap: 0, Scales: 128,127, Expected: 8192, Actual: 8192
 33880.01ns INFO     cocotb.regression                  test.test_fast_start_scale_compression passed
 33880.01ns INFO     cocotb.regression                  running test.test_yaml_cases (12/36)
 33880.01ns INFO     cocotb.tb                          Start YAML Test Cases from TEST_MX_E2E.yaml
 33880.01ns INFO     cocotb.tb                          Running Case 1: Basic E4M3 x E4M3 multiplication of 1.0 * 1.0 with default scales (2^0). 32 elements summed.
 34390.01ns INFO     cocotb.tb                          Format: E4M3xE4M3, RM: 0, Wrap: 0, Scales: 127,127, Expected: 8192, Actual: 8192
 34390.01ns INFO     cocotb.tb                          Skipping Case 2: E5M2 not supported
 34390.01ns INFO     cocotb.tb                          Skipping Case 3: Shared Scaling not supported
 34390.01ns INFO     cocotb.tb                          Skipping Case 4: Shared Scaling not supported
 34390.01ns INFO     cocotb.tb                          Running Case 5: Negative product accumulation. 1.0 * -1.0 = -1.0. Summed 32 times is -32.0.
 34900.01ns INFO     cocotb.tb                          Format: E4M3xE4M3, RM: 0, Wrap: 0, Scales: 127,127, Expected: -8192, Actual: -8192
 34900.01ns INFO     cocotb.tb                          Skipping Case 6: MXFP6 not supported
 34900.01ns INFO     cocotb.tb                          Skipping Case 7: MXFP6 not supported
 34900.01ns INFO     cocotb.tb                          Running Case 8: MXFP4 (E2M1) basic multiplication. 1.0 (0x02) * 1.0 (0x02) = 1.0.
 35410.01ns INFO     cocotb.tb                          Format: E2M1xE2M1, RM: 0, Wrap: 0, Scales: 127,127, Expected: 8192, Actual: 8192
 35410.01ns INFO     cocotb.tb                          Running Case 9: MXINT8 multiplication. 64 (0x40) * 64 (0x40). With implicit 2^-6 scale per operand, this equals 1.0.
 35920.01ns INFO     cocotb.tb                          Format: INT8xINT8, RM: 0, Wrap: 0, Scales: 127,127, Expected: 8192, Actual: 8192
 35920.01ns INFO     cocotb.tb                          Running Case 10: MXINT8_SYM. -128 (0x80) is treated as -127. -127 * 64 * 32 = -260096. Scaled by 2^-12 and then fixed point 2^8.
 36430.01ns INFO     cocotb.tb                          Format: INT8_SYMxINT8, RM: 0, Wrap: 0, Scales: 127,127, Expected: -16256, Actual: -16256
 36430.01ns INFO     cocotb.tb                          Skipping Case 11: E5M2 not supported
 36430.01ns INFO     cocotb.tb                          Running Case 12: Rounding Mode RNE (Round Ties to Even). 0.28125 * 0.5625 = 0.158203125. With bit-16 fractional alignment, 40.5 is represented exactly. 40.5 * 32 = 1296.
 36940.01ns INFO     cocotb.tb                          Format: E4M3xE4M3, RM: 3, Wrap: 0, Scales: 127,127, Expected: 1296, Actual: 1280
 36940.01ns WARNING  .. test_yaml_cases.test_yaml_cases assert 1280 == 1296
                                                        Traceback (most recent call last):
                                                          File "/app/test/test.py", line 935, in test_yaml_cases
                                                            await run_yaml_file(dut, "TEST_MX_E2E.yaml")
                                                          File "/app/test/test.py", line 915, in run_yaml_file
                                                            await run_mac_test(dut,
                                                          File "/app/test/test.py", line 549, in run_mac_test
                                                            assert actual_acc == expected_final
                                                        AssertionError: assert 1280 == 1296
 36940.01ns WARNING  cocotb.regression                  test.test_yaml_cases failed
 36940.01ns INFO     cocotb.regression                  running test.test_mx_fp4_yaml (13/36)
 36940.01ns INFO     cocotb.tb                          Start YAML Test Cases from TEST_MX_FP4.yaml
 36940.01ns INFO     cocotb.tb                          Running Case 1: Standard MXFP4 (E2M1) multiplication. 32 elements of 1.0 * 1.0 = 1.0. Summed is 32.0.
 37450.01ns INFO     cocotb.tb                          Format: E2M1xE2M1, RM: 0, Wrap: 0, Scales: 127,127, Expected: 8192, Actual: 8192
 37450.01ns INFO     cocotb.tb                          Running Case 2: Packed MXFP4 (E2M1) multiplication. 32 elements of 1.0 * 1.0 = 1.0. Summed is 32.0.
 37800.01ns INFO     cocotb.tb                          Format: E2M1xE2M1, RM: 0, Wrap: 0, Scales: 127,127, Expected: 8192, Actual: 8192
 37800.01ns INFO     cocotb.tb                          Running Case 3: Mixed Values Packed MXFP4 (E2M1). 1.0 (0x02) * 2.0 (0x04) = 2.0. Summed is 64.0.
 38150.01ns INFO     cocotb.tb                          Format: E2M1xE2M1, RM: 0, Wrap: 0, Scales: 127,127, Expected: 16384, Actual: 16384
 38150.01ns INFO     cocotb.tb                          Running Case 4: Negative Values Packed MXFP4 (E2M1). -1.0 (0x0A) * 1.0 (0x02) = -1.0. Summed is -32.0.
 38500.01ns INFO     cocotb.tb                          Format: E2M1xE2M1, RM: 0, Wrap: 0, Scales: 127,127, Expected: -8192, Actual: -8192
 38500.01ns INFO     cocotb.tb                          Running Case 5: Subnormal Values Packed MXFP4 (E2M1). 0.5 (0x01) * 1.0 (0x02) = 0.5. Summed is 16.0.
 38850.01ns INFO     cocotb.tb                          Format: E2M1xE2M1, RM: 0, Wrap: 0, Scales: 127,127, Expected: 4096, Actual: 4096
 38850.01ns INFO     cocotb.tb                          Running Case 6: Edge Case Max Values Packed MXFP4 (E2M1). 6.0 (0x07) * 6.0 (0x07) = 36.0. Summed is 1152.0.
 39200.01ns INFO     cocotb.tb                          Format: E2M1xE2M1, RM: 0, Wrap: 0, Scales: 127,127, Expected: 294912, Actual: 294912
 39200.01ns INFO     cocotb.tb                          Running Case 7: Full range FP4 (E2M1) multiplication. All 16 values squared and summed twice. Expected: 274.0.
 39550.01ns INFO     cocotb.tb                          Format: E2M1xE2M1, RM: 0, Wrap: 0, Scales: 127,127, Expected: 70144, Actual: 70144
 39550.01ns INFO     cocotb.tb                          Running Case 7: Full range FP4 (E2M1) multiplication. All 16 values squared and summed twice. Expected: 274.0.
 39900.01ns INFO     cocotb.tb                          Format: E2M1xE2M1, RM: 0, Wrap: 0, Scales: 127,127, Expected: 70144, Actual: 70144
 39900.01ns INFO     cocotb.regression                  test.test_mx_fp4_yaml passed
 39900.01ns INFO     cocotb.regression                  running test.test_min_max_zero_yaml (14/36)
 39900.01ns INFO     cocotb.tb                          Start YAML Test Cases from TEST_MIN_MAX_ZERO.yaml
 39900.01ns INFO     cocotb.tb                          Running Case 101: E4M3 Max Finite * 1.0
 40410.01ns INFO     cocotb.tb                          Format: E4M3xE4M3, RM: 0, Wrap: 0, Scales: 127,127, Expected: 3670016, Actual: 3670016
 40410.01ns INFO     cocotb.tb                          Running Case 102: E4M3 Negative Max Finite * 1.0
 40920.01ns INFO     cocotb.tb                          Format: E4M3xE4M3, RM: 0, Wrap: 0, Scales: 127,127, Expected: -3670016, Actual: -3670016
 40920.01ns INFO     cocotb.tb                          Running Case 103: E4M3 Subnormal (0x01) * Max Finite (0x7E)
 41430.01ns INFO     cocotb.tb                          Format: E4M3xE4M3, RM: 0, Wrap: 0, Scales: 127,127, Expected: 7168, Actual: 7168
 41430.01ns INFO     cocotb.tb                          Running Case 104: E4M3 Negative Subnormal (0x81) * Max Finite (0x7E)
 41940.01ns INFO     cocotb.tb                          Format: E4M3xE4M3, RM: 0, Wrap: 0, Scales: 127,127, Expected: -7168, Actual: -7168
 41940.01ns INFO     cocotb.tb                          Running Case 105: E4M3 Zero * Max Finite
 42450.01ns INFO     cocotb.tb                          Format: E4M3xE4M3, RM: 0, Wrap: 0, Scales: 127,127, Expected: 0, Actual: 0
 42450.01ns INFO     cocotb.tb                          Skipping Case 106: E5M2 not supported
 42450.01ns INFO     cocotb.tb                          Skipping Case 107: E5M2 not supported
 42450.01ns INFO     cocotb.tb                          Skipping Case 108: E5M2 not supported
 42450.01ns INFO     cocotb.tb                          Skipping Case 109: E5M2 not supported
 42450.01ns INFO     cocotb.tb                          Skipping Case 110: E5M2 not supported
 42450.01ns INFO     cocotb.tb                          Skipping Case 111: E5M2 not supported
 42450.01ns INFO     cocotb.tb                          Skipping Case 112: E5M2 not supported
 42450.01ns INFO     cocotb.tb                          Running Case 113: E2M1 Max * 1.0
 42960.01ns INFO     cocotb.tb                          Format: E2M1xE2M1, RM: 0, Wrap: 0, Scales: 127,127, Expected: 49152, Actual: 49152
 42960.01ns INFO     cocotb.tb                          Running Case 114: E2M1 Negative Max * 1.0
 43470.01ns INFO     cocotb.tb                          Format: E2M1xE2M1, RM: 0, Wrap: 0, Scales: 127,127, Expected: -49152, Actual: -49152
 43470.01ns INFO     cocotb.tb                          Running Case 115: E2M1 Negative Subnormal (0x09) * 1.0
 43980.01ns INFO     cocotb.tb                          Format: E2M1xE2M1, RM: 0, Wrap: 0, Scales: 127,127, Expected: -4096, Actual: -4096
 43980.01ns INFO     cocotb.tb                          Running Case 116: E2M1 Negative Zero * 1.0
 44490.01ns INFO     cocotb.tb                          Format: E2M1xE2M1, RM: 0, Wrap: 0, Scales: 127,127, Expected: 0, Actual: 0
 44490.01ns INFO     cocotb.tb                          Skipping Case 117: Shared Scaling not supported
 44490.01ns INFO     cocotb.tb                          Running Case 118: E4M3 Negative Zero * 1.0
 45000.01ns INFO     cocotb.tb                          Format: E4M3xE4M3, RM: 0, Wrap: 0, Scales: 127,127, Expected: 0, Actual: 0
 45000.01ns INFO     cocotb.tb                          Skipping Case 119: E5M2 not supported
 45000.01ns INFO     cocotb.regression                  test.test_min_max_zero_yaml passed
 45000.01ns INFO     cocotb.regression                  running test.test_mxplus_yaml (15/36)
 45000.01ns INFO     cocotb.tb                          Start YAML Test Cases from TEST_MXPLUS.yaml
 45000.01ns INFO     cocotb.tb                          Running Case 1: MXFP4+ (E2M1) BM element precision. a[0] is BM(0x02)=5.0, b[31] is BM(0x02)=5.0. Others 1.0. Total = 5 + 30 + 5 = 40.0. Fixed = 10240.
 45510.01ns INFO     cocotb.tb                          Format: E2M1xE2M1, RM: 0, Wrap: 0, Scales: 127,127, Expected: 10240, Actual: 10240
 45510.01ns INFO     cocotb.tb                          Running Case 2: MXFP4+ (E2M1) BM element precision. a[0] is BM(0x05)=6.5, b[31] is BM(0x05)=6.5. Others 1.0. Total = 6.5 + 30 + 6.5 = 43.0. Fixed = 11008.
 46020.01ns INFO     cocotb.tb                          Format: E2M1xE2M1, RM: 0, Wrap: 0, Scales: 127,127, Expected: 11008, Actual: 11008
 46020.01ns INFO     cocotb.tb                          Running Case 3: MXFP8+ (E4M3) BM element precision. a[10] is BM(0x38)=368.0, b[31] is BM(0x38)=368.0. Others 1.0. Total = 368 + 30 + 368 = 766.0. Fixed = 196096.
 46530.01ns INFO     cocotb.tb                          Format: E4M3xE4M3, RM: 0, Wrap: 0, Scales: 127,127, Expected: 196096, Actual: 196096
 46530.01ns INFO     cocotb.tb                          Running Case 4: MXFP4++ (E2M1) Decoupled Scaling. a[0] is BM, b[0] is BM. nbm_offset_a=1. BM Prod = 25.0, NBM Prod = 0.5. Total = 25 + 31*0.5 = 40.5. Fixed = 10368.
 47040.01ns INFO     cocotb.tb                          Format: E2M1xE2M1, RM: 0, Wrap: 0, Scales: 127,127, Expected: 10368, Actual: 10368
 47040.01ns INFO     cocotb.tb                          Running Case 5: MXFP4++ (E2M1) Decoupled Scaling. nbm_offset_a=2, nbm_offset_b=1. BM Prod = 25.0, NBM Prod = 0.25*0.5 = 0.125. Total = 25 + 31*0.125 = 28.875. Fixed = 7392.
 47550.01ns INFO     cocotb.tb                          Format: E2M1xE2M1, RM: 0, Wrap: 0, Scales: 127,127, Expected: 7392, Actual: 7392
 47550.01ns INFO     cocotb.tb                          Running Case 6: MXFP4++ (E2M1) Decoupled Scaling. nbm_offset_a=2, nbm_offset_b=2. BM Prod = 25.0, NBM Prod = 0.25*0.25 = 0.0625. Total = 25 + 31*0.0625 = 26.9375. Fixed = 6896.
 48060.01ns INFO     cocotb.tb                          Format: E2M1xE2M1, RM: 0, Wrap: 0, Scales: 127,127, Expected: 6896, Actual: 6896
 48060.01ns INFO     cocotb.tb                          Running Case 7: MXFP4+ Mid-block BM index. a[7]=0x05, b[7]=0x05 are BM. 42.25 + 31 = 73.25. Fixed = 18752.
 48570.01ns INFO     cocotb.tb                          Format: E2M1xE2M1, RM: 0, Wrap: 0, Scales: 127,127, Expected: 18752, Actual: 18752
 48570.01ns INFO     cocotb.tb                          Running Case 8: Mixed Precision MX+. a:E4M3+, b:E2M1+, index 7 are BM. Product 1024 shifted 8 = 262144.
 49080.01ns INFO     cocotb.tb                          Format: E4M3xE2M1, RM: 0, Wrap: 0, Scales: 127,127, Expected: 262144, Actual: 262144
 49080.01ns INFO     cocotb.tb                          Running Case 9: MXFP4+ Zero-valued outlier (treated as 4.0). a[7] is BM(0x00)=4.0, b[7] is BM(0x02)=5.0. Total = 20.0. Fixed = 5120.
 49590.01ns INFO     cocotb.tb                          Format: E2M1xE2M1, RM: 0, Wrap: 0, Scales: 127,127, Expected: 5120, Actual: 5120
 49590.01ns INFO     cocotb.tb                          Running Case 10: MXFP4+ Negative outlier. a[7] is BM(0x0A)=-5.0, b[7] is BM(0x02)=5.0. Total = -25.0. Fixed = -6400.
 50100.01ns INFO     cocotb.tb                          Format: E2M1xE2M1, RM: 0, Wrap: 0, Scales: 127,127, Expected: -6400, Actual: -6400
 50100.01ns INFO     cocotb.regression                  test.test_mxplus_yaml passed
 50100.01ns INFO     cocotb.regression                  running test.test_mxfp4_input_buffering (16/36)
 50100.01ns INFO     cocotb.tb                          Skipping Input Buffering FP4 Test (SUPPORT_VECTOR_PACKING=1 (takes precedence))
 50100.01ns INFO     cocotb.regression                  test.test_mxfp4_input_buffering passed
 50100.01ns INFO     cocotb.regression                  running test.test_mxfp8_sticky_flags (17/36)
 50100.02ns INFO     cocotb.tb                          Start MXFP8 Sticky Flags (NaN/Inf) Test
